{
	"name": "devbuild",
	"authors": [
		"Pulga"
	],
	"dependencies": {
		"gtk-d:gtkd": "~>3.6.6"
	},
	"targetPath": "bin/",
	"targetType": "executable",
	"description": "Simple D Build Tool",
	"copyright": "Copyright © 2017, Pulga",
	"license": "public domain"
}